[
    {
        "id": 5,
        "title": "Huawei P30",
        "description": "Huawei’s re-badged P30 Pro New Edition was officially unveiled yesterday in Germany and now the device has made its way to the UK.",
        "price": 499,
        "discountPercentage": 10.58,
        "rating": 4.09,
        "stock": 32,
        "brand": "Huawei",
        "category": "smartphones",
        "thumbnail": "https://dummyjson.com/image/i/products/5/thumbnail.jpg",
        "images": [
            "https://dummyjson.com/image/i/products/5/1.jpg",
            "https://dummyjson.com/image/i/products/5/2.jpg",
            "https://dummyjson.com/image/i/products/5/3.jpg"
        ],
        "quantity": 1,
        "total": 499
    },
    {
        "id": 6,
        "title": "MacBook Pro",
        "description": "MacBook Pro 2021 with mini-LED display may launch between September, November",
        "price": 1749,
        "discountPercentage": 11.02,
        "rating": 4.57,
        "stock": 83,
        "brand": "APPle",
        "category": "laptops",
        "thumbnail": "https://dummyjson.com/image/i/products/6/thumbnail.png",
        "images": [
            "https://dummyjson.com/image/i/products/6/1.png",
            "https://dummyjson.com/image/i/products/6/2.jpg",
            "https://dummyjson.com/image/i/products/6/3.png",
            "https://dummyjson.com/image/i/products/6/4.jpg"
        ],
        "quantity": 1,
        "total": 1749
    }
]